<svg width="41.3" height="48.1" xmlns="http://www.w3.org/2000/svg" xml:space="preserve" version="1.1">

 <g>
  <title>Layer 1</title>
  <text transform="matrix(2.20587, 0, 0, 1.76714, -0.246226, 0.746293)" font-weight="bold" xml:space="preserve" text-anchor="start" font-family="'Rubik'" font-size="26" stroke-width="0" font-height="200" id="svg_8" y="25.93411" x="0.25" fill="#ffffff">T</text>
 </g>
</svg>